Conserved elements
…
# Loop through each file and read the data
for (file in conserved_sites_files) {
  # Read the file
  temp_df = read_delim(file, delim=" ", col_names = c("chromosome", "total.conserved"))
  
  # Add the data to the combined data.frame
  conserved_site_counts = bind_rows(conserved_site_counts, temp_df)
}

# Print the combined data.frame or tibble
print(conserved_site_counts)

## # A tibble: 23 x 2
##    chromosome total.conserved
##    <chr>                <dbl>
##  1 chr1               8298109
##  2 chr10              3583850
##  3 chr11              4607217
##  4 chr12              4390266
##  5 chr13              2566634
##  6 chr14              3003415
##  7 chr15              3489980
##  8 chr16              3617093
##  9 chr17              3890565
## 10 chr18              2238269
## # i 13 more rows
chromes_file = here("summary-data", "GRCh38.chromes")
chromes_df = read_tsv(chromes_file, col_names = c("chromosome", "chromosome.length", "bytes", "ll1", "ll2")) %>%
  select(chromosome, chromosome.length)

# Join the combined_df with chromes_df
conserved_site_counts = conserved_site_counts %>%
  left_join(chromes_df, by = "chromosome") #

conserved_site_counts = conserved_site_counts %>%
  mutate(percent.conserved = total.conserved / chromosome.length)

# Print the final data.frame or tibble
print(conserved_site_counts)

## # A tibble: 23 x 4
##    chromosome total.conserved chromosome.length percent.conserved
##    <chr>                <dbl>             <dbl>             <dbl>
##  1 chr1               8298109         248956422            0.0333
##  2 chr10              3583850         133797422            0.0268
##  3 chr11              4607217         135086622            0.0341
##  4 chr12              4390266         133275309            0.0329
##  5 chr13              2566634         114364328            0.0224
##  6 chr14              3003415         107043718            0.0281
##  7 chr15              3489980         101991189            0.0342
##  8 chr16              3617093          90338345            0.0400
##  9 chr17              3890565          83257441            0.0467
## 10 chr18              2238269          80373285            0.0278
## # i 13 more rows
